{
    "ui": true,
    "leave_on_terminate": true,
    "rejoin_after_leave": true,
    "protocol": 3,
    "http_config": {
      "response_headers": {
        "Access-Control-Allow-Origin": "*"
      }
    },
    "translate_wan_addrs": true
}
